{
    "en": {
        "time.today": "Today",
        "hero.offer": "React, Node & AWS (RNA){br} A very healthy stack!",
        "hero.mission": "Freelance cloud-native developer",
        "hero.hireMe": "Hire me",
        "hero.downloadCv": "Download CV",
        "about.title": "About",
        "about.subTitle": "RNA - Get the hottest Stack of 2021!",
        "about.body": "Full-Stack Developer with extensive practical experience on the AWS - Node - React Stack. I developed for renowned companies like BOSCH & Daimler and worked as a cloud consultant for more than a year before turning to freelancing. {br}{br}I specialise on performant, data-driven web applications such as dashboards & editors for businesses. The skeleton of the UI is preferrably based on material design due to its slick elegance. Of course it can be adapted to your corporate design as desired. My backend expertise is primarily grounded in the big cloud Providers AWS, GCP & Azure (Check my {aCertificates}). In my recent customer projects i also had the chance of working with microservice architectures such as kubernetes & AWS VPC's.{br}{br}SCRUM is a big plus if you consider me for a longer commitment! I am also open for other development work that doesn't fall into my core expertise (React-Node-AWS). Curious to hear about your Dev/Ops related vision or challenges at hello@juliandemourgues.com!",
        "about.certificates.title": "Certificates",
        "articles.title": "Articles",
        "articles.subTitle": "I write from time to time if i stumble upon a topic that i feel more people should know about.",
        "contact.title": "Contact",
        "contact.subTitle": "You got an awesome project that you want to discuss with me? I am all ears! Get in touch with me over the following platforms, via email, phone or at the Blumencafé in Prenzlauer Berg.",
        "contact.name": "Name",
        "contact.email": "Email",
        "contact.message": "Message",
        "contact.clear": "Clear",
        "contact.submit": "Submit",
        "experience.title": "Experience",
        "experience.subTitle": "My work & educational experience on the left side and general skill categories on the right. All are extendable for more detailed info. The linear Progress bar shows my confidence level compared to a consultant with 8 years experience.",
        "experience.work": "Work",
        "experience.education": "Education",
        "experience.skills": "Skills",
        "plans.title": "Hire me!",
        "plans.subTitle": "Either hire me on an hourly basis or on a fixed price. If those rates are not what you had in mind but your project is phenomenal, let's discuss anyway. You miss all the shots you don't take.",
        "plans.bookThis": "Inquire",
        "plans.hourly.title": "Hourly",
        "plans.packages.title": "Flatrate",
        "plans.inquiry": "mailto:hello@juliandemourgues.com?subject=Project%20inquiry&body=Hi%20Julian%2C%0A%0AI%20would%20like%20to%20discuss%20my%20project%20with%20you.%20Please%20call%20me%20at%20%3Cphone%3E.%0A%0ABest%20wishes%2C%0A%0A%3CYour%20name%3E",
        "plans.hourly": [
            {
                "features": [
                    "Contract for at least 3 months or more",
                    "Any work that falls into my core expertise"  
                ],
                "subTitle": "For long-term committments",
                "title": "Custom",
                "disclaimer": "Money back if i couldn't fix your problem/implement your solution."
            },
            {
                "title": "Flexible Remote Work",
                "subTitle": "On-demand rate",
                "features": [
                    "Contract over 1 day or more",
                    "Any work that falls into my core expertise and skills"
                ],
                "disclaimer": "Money back if i couldn't fix your problem/implement your solution."
            },
            {
                "title": "In Office",
                "subTitle": "Traveling Rate",
                "features": [
                    "Contract over 1 week or more",
                    "Traveling required"
                ],
                "disclaimer": "1 Week trial period."
            }
        ],
        "plans.packages": [
            {
                "title": "Green Field Frontend App",
                "subTitle": "A brandnew responsive page",
                "features": [
                    "Rich, responsive landing page",
                    "Material design",
                    "Internationalisation",
                    "3 Basic Views",
                    "CI/CD in the cloud",
                    "1 month delivery"
                ],
                "disclaimer": "3 Revisions",
                "emailBody": "Hello Julian, I am interested"
            },
            {
                "title": "Advanced Frontend and Backend work",
                "subTitle": "A pay-once license, just for you",
                "features": [
                    "Authentication Workflow",
                    "5 Datatypes, excluding User Type",
                    "Standard SQL or noSQL DB in the cloud",
                    "Any processing on those datatypes"
                  ],
                  "disclaimer": "3 Revisions"
            },
            {
                "title": "1 year Support",
                "subTitle": "For long-term support",
                "features": [
                    "All previous tiers",
                    "12 months 2-tier support"
                ],
                "disclaimer": "5 Revisions"
            }
        ],
        "projects.title": "Projects",
        "projects.subTitle": "Here you can see a few selected frontend projects that i am proud of. All are distributed with the acceptance of the customer.",
        "projects.viewMore": "Live Site"
    },
    "de": {
        "time.today": "Heute",
        "hero.offer": "React, Node & AWS (RNA){br} Ein sehr gesunder Stack!",
        "hero.mission": "Freiberufliche Cloud-native Entwicklung",
        "hero.hireMe": "Los geht's",
        "hero.downloadCv": "CV downloaden",
        "about.title": "Vorstellung",
        "about.body": "Full-Stack Developer mit umfangreicher Praxiserfahrung auf dem AWS - Node - React Stack. Ich habe für namhafte Unternehmen wie BOSCH & Daimler entwickelt und mehr als ein Jahr als Cloud Consultant gearbeitet, bevor ich mich der Freiberuflichkeit zuwandte.{br}{br} Meine Spezialität sind performante, datengetriebene Webanwendungen wie Dashboards & Editoren. Das Skelett der UI basiert aufgrund der schlanken Eleganz bevorzugt auf Material Design und kann nach Belieben an Ihr Corporate Design angepasst werden. Meine Backend-Expertise liegt vor allem bei den großen Cloud-Providern AWS, GCP & Azure (siehe {aCertificates}). In meinen letzten Kundenprojekten arbeitete ich auch erfolgreich mit Microservice-Architekturen wie Kubernetes & AWS VPC's. {br}{br}SCRUM ist ein großes Plus, wenn Sie mich für ein längeres Engagement in Betracht ziehen! Ich tracke meine Arbeitszeit pro User-Story auf die Minute genau mit dem Tool clockify. {br}{br} Ich bin auch offen für andere Entwicklungsarbeiten die nicht in meine Spezialisierung fallen und freue mich von Ihren Dev/Ops-bezogenen Visionen oder Herausforderungen zu hören!",
        "about.certificates.title": "Zertifikate",
        "articles.title": "Blog",
        "articles.subTitle": "Ich schreibe von Zeit zu Zeit, wenn ich über ein Thema stolpere, von dem ich denke, dass es mehr Leute kennen sollten.",
        "contact.title": "Kontakt",
        "contact.subTitle": "Nehmen Sie über die unten genannten Plattformen gerne Kontakt mit mir auf, schicken Sie mir eine Email oder lassen Sie uns auf einen Kaffee in Berlin treffen!",
        "contact.name": "Name",
        "contact.email": "Email",
        "contact.message": "Message",
        "contact.clear": "Clear",
        "contact.submit": "Submit",
        "experience.title": "Erfahrung",
        "experience.subTitle": "Meine berufliche und universitäre Erfahrung auf der linken Seite, generelle Fähigkeiten auf der Rechten. Alle sind ausfahrbar für mehr Details. Der lineare Fortschrittsbalken zeigt jeweils mein Selbstbewusstsein gegenüber einem Berater mit 8 Jahre Erfahrung.",
        "experience.work": "Arbeit",
        "experience.education": "Bildung",
        "experience.skills": "Fähigkeiten",
        "plans.title": "Einsatz",
        "plans.subTitle": "Buchen Sie meine Leistungen auf Stundenbasis oder als festes Paket.",
        "plans.inquiry": "mailto:hello@juliandemourgues.com?subject=Projektanfrage&body=Hallo%20Julian%2C%0A%0AIch%20w%C3%BCrde%20gerne%20mein%20Projekt%20mit%20Ihnen%20besprechen.%20Bitte%20rufen%20Sie%20mich%20unter%20der%20%3CMobilnummer%3E%20an.%0A%0AViele%20Gr%C3%BC%C3%9Fe%2C%0A%3CName%3E",
        "plans.bookThis": "Anfragen",
        "plans.hourly.title": "Stundenbasis",
        "plans.packages.title": "Fixpreis",
        "plans.hourly": [
            {
                "features": [
                    "Vertraglaufzeit von 3 Monaten oder mehr",
                    "Jegliche Aufgaben die in meine Kernkompetenzen fallen"
                ],
                "subTitle": "Für längere Vertragslaufzeiten",
                "title": "Angepasst",
                "disclaimer": "Erhalten Sie Ihre Anzahlung zurück falls ich Ihr Problem nicht lösen konnte."
            },
            {
                "title": "Flexible Remote Arbeit",
                "subTitle": "On-Demand Rate",
                "features": [
                  "Vertraglaufzeit ab einem Tag",
                  "Jegliche Aufgaben die in meine Kernkompetenzen fallen"
                ],
                "disclaimer": "Erhalten Sie Ihre Anzahlung zurück falls ich Ihr Problem nicht lösen konnte."
            },
            {
                "title": "Am Standort",
                "subTitle": "Für höheren Reisebedarf",
                "features": [
                    "Vertraglaufzeit ab einer Woche",
                    "Inlandsreisen nötig"
                ],
                "disclaimer": "1-wöchige Testphase."
            }
        ],
        "plans.packages": [
            {
                "features": [
                    "Responsive Startseite",
                    "Material Design",
                    "Internationalisierung",
                    "3 Standard Seiten",
                    "CI/CD in der Cloud",
                    "1 Woche Lieferung"
                ],
                "subTitle": "Das neue Frontend Ihrer App",
                "title": "App Grundlage",
                "disclaimer": "3 Revisionen"
            },
            {
                "title": "Fortgeschrittenes Frontend und Backend",
                "subTitle": "A pay-once license, just for you",
                "features": [
                    "Authentifierungs-Workflow",
                    "Rollen / IAM",
                    "5 Datentypen neben dem User-typ",
                    "Jegliche Berechnung auf den Datentypen",
                    "Jegliche SQL or noSQL DB in der Cloud"
                ],
                "disclaimer": "3 Revisionen"
            },
            {
                "title": "Ein Jahr Support",
                "subTitle": "A pay-once license, just for you",
                "features": [
                    "Alle vorherigen Kacheln",
                    "12 Monate 2-tier Unterstützung"
                ],
                "disclaimer": "5 Revisionen"
            }
        ],
        "projects.title": "Projekte",
        "projects.subTitle": "Hier sehen Sie ausgewählte Frontend-Projekte auf die ich stolz bin. Dieses Portfolio ist mit den Empfängern der jeweiligen Entwicklungsleistungen abgesprochen.",
        "projects.viewMore": "Live Seite"
    }
}
  